^D:\GC2A08\C++KADAI\CPP_KADAI\課題15\MAIN.CPP|D:\GC2A08\C++KADAI\CPP_KADAI\課題15\SAMPLE.CPP|D:\GC2A08\C++KADAI\CPP_KADAI\課題15\SUB.CPP
D:\GC2A08\C++KADAI\CPP_KADAI\課題15\X64\DEBUG\VC142.PDB
D:\GC2A08\C++KADAI\CPP_KADAI\課題15\X64\DEBUG\VC142.IDB
D:\GC2A08\C++KADAI\CPP_KADAI\課題15\X64\DEBUG\SUB.OBJ
D:\GC2A08\C++KADAI\CPP_KADAI\課題15\X64\DEBUG\SAMPLE.OBJ
D:\GC2A08\C++KADAI\CPP_KADAI\課題15\X64\DEBUG\MAIN.OBJ
^D:\GC2A08\C++KADAI\CPP_KADAI\課題15\MAIN.CPP
D:\GC2A08\C++KADAI\CPP_KADAI\課題15\X64\DEBUG\VC142.PDB
^D:\GC2A08\C++KADAI\CPP_KADAI\課題15\SAMPLE.CPP
D:\GC2A08\C++KADAI\CPP_KADAI\課題15\X64\DEBUG\VC142.PDB
^D:\GC2A08\C++KADAI\CPP_KADAI\課題15\SUB.CPP
D:\GC2A08\C++KADAI\CPP_KADAI\課題15\X64\DEBUG\VC142.PDB
