^D:\GC2A08\C++KADAI\CPP_KADAI\課題15\X64\DEBUG\MAIN.OBJ|D:\GC2A08\C++KADAI\CPP_KADAI\課題15\X64\DEBUG\SAMPLE.OBJ|D:\GC2A08\C++KADAI\CPP_KADAI\課題15\X64\DEBUG\SUB.OBJ
D:\GC2A08\C++KADAI\CPP_KADAI\X64\DEBUG\課題15.ILK
D:\GC2A08\C++KADAI\CPP_KADAI\X64\DEBUG\課題15.EXE
D:\GC2A08\C++KADAI\CPP_KADAI\X64\DEBUG\課題15.PDB
