^D:\GC2A08\C++KADAI\CPP_KADAI\課題3\CIRCLECLASS.CPP|D:\GC2A08\C++KADAI\CPP_KADAI\課題3\MAIN.CPP
D:\GC2A08\C++KADAI\CPP_KADAI\課題3\DEBUG\VC142.PDB
D:\GC2A08\C++KADAI\CPP_KADAI\課題3\DEBUG\VC142.IDB
D:\GC2A08\C++KADAI\CPP_KADAI\課題3\DEBUG\MAIN.OBJ
D:\GC2A08\C++KADAI\CPP_KADAI\課題3\DEBUG\CIRCLECLASS.OBJ
^D:\GC2A08\C++KADAI\CPP_KADAI\課題3\CIRCLECLASS.CPP
D:\GC2A08\C++KADAI\CPP_KADAI\課題3\DEBUG\VC142.PDB
^D:\GC2A08\C++KADAI\CPP_KADAI\課題3\MAIN.CPP
D:\GC2A08\C++KADAI\CPP_KADAI\課題3\DEBUG\VC142.PDB
