^D:\GC2A08\C++KADAI\CPP_KADAI\課題1\DEBUG\MAIN.OBJ|D:\GC2A08\C++KADAI\CPP_KADAI\課題1\DEBUG\SAMPLE.OBJ
D:\GC2A08\C++KADAI\CPP_KADAI\DEBUG\課題1.EXE
D:\GC2A08\C++KADAI\CPP_KADAI\DEBUG\課題1.ILK
D:\GC2A08\C++KADAI\CPP_KADAI\DEBUG\課題1.PDB
