^D:\GC2A08\C++KADAI\CPP_KADAI\課題9\MAIN.CPP|D:\GC2A08\C++KADAI\CPP_KADAI\課題9\SAMPLE.CPP
D:\GC2A08\C++KADAI\CPP_KADAI\課題9\DEBUG\VC142.PDB
D:\GC2A08\C++KADAI\CPP_KADAI\課題9\DEBUG\VC142.IDB
D:\GC2A08\C++KADAI\CPP_KADAI\課題9\DEBUG\SAMPLE.OBJ
D:\GC2A08\C++KADAI\CPP_KADAI\課題9\DEBUG\MAIN.OBJ
^D:\GC2A08\C++KADAI\CPP_KADAI\課題9\SAMPLE.CPP
D:\GC2A08\C++KADAI\CPP_KADAI\課題9\DEBUG\VC142.PDB
^D:\GC2A08\C++KADAI\CPP_KADAI\課題9\MAIN.CPP
D:\GC2A08\C++KADAI\CPP_KADAI\課題9\DEBUG\VC142.PDB
D:\GC2A08\C++KADAI\CPP_KADAI\課題9\DEBUG\VC142.IDB
D:\GC2A08\C++KADAI\CPP_KADAI\課題9\DEBUG\MAIN.OBJ
