^D:\GC2A08\C++KADAI\CPP_KADAI\課題9\DEBUG\MAIN.OBJ|D:\GC2A08\C++KADAI\CPP_KADAI\課題9\DEBUG\SAMPLE.OBJ
D:\GC2A08\C++KADAI\CPP_KADAI\DEBUG\課題9.EXE
D:\GC2A08\C++KADAI\CPP_KADAI\DEBUG\課題9.ILK
D:\GC2A08\C++KADAI\CPP_KADAI\DEBUG\課題9.PDB
