^D:\GC2A08\C++KADAI\CPP_KADAI\課題13\CALCLATION.CPP|D:\GC2A08\C++KADAI\CPP_KADAI\課題13\MAIN.CPP
D:\GC2A08\C++KADAI\CPP_KADAI\課題13\X64\DEBUG\VC142.PDB
D:\GC2A08\C++KADAI\CPP_KADAI\課題13\X64\DEBUG\VC142.IDB
D:\GC2A08\C++KADAI\CPP_KADAI\課題13\X64\DEBUG\MAIN.OBJ
D:\GC2A08\C++KADAI\CPP_KADAI\課題13\X64\DEBUG\CALCLATION.OBJ
^D:\GC2A08\C++KADAI\CPP_KADAI\課題13\CALCLATION.CPP
D:\GC2A08\C++KADAI\CPP_KADAI\課題13\X64\DEBUG\VC142.PDB
^D:\GC2A08\C++KADAI\CPP_KADAI\課題13\MAIN.CPP
D:\GC2A08\C++KADAI\CPP_KADAI\課題13\X64\DEBUG\VC142.PDB
