^D:\GC2A08\C++KADAI\CPP_KADAI\課題5\DEBUG\DATA.OBJ|D:\GC2A08\C++KADAI\CPP_KADAI\課題5\DEBUG\MAIN.OBJ
D:\GC2A08\C++KADAI\CPP_KADAI\DEBUG\課題5.ILK
D:\GC2A08\C++KADAI\CPP_KADAI\DEBUG\課題5.EXE
D:\GC2A08\C++KADAI\CPP_KADAI\DEBUG\課題5.PDB
