^D:\GC2A08\C++KADAI\CPP_KADAI\課題16\DEBUG\FIGURE.OBJ|D:\GC2A08\C++KADAI\CPP_KADAI\課題16\DEBUG\MAIN.OBJ|D:\GC2A08\C++KADAI\CPP_KADAI\課題16\DEBUG\SQUARE.OBJ|D:\GC2A08\C++KADAI\CPP_KADAI\課題16\DEBUG\TRIANGLE.OBJ
D:\GC2A08\C++KADAI\CPP_KADAI\DEBUG\課題16.ILK
D:\GC2A08\C++KADAI\CPP_KADAI\DEBUG\課題16.EXE
D:\GC2A08\C++KADAI\CPP_KADAI\DEBUG\課題16.PDB
