^D:\GC2A08\C++KADAI\CPP_KADAI\課題8\X64\DEBUG\MAIN.OBJ|D:\GC2A08\C++KADAI\CPP_KADAI\課題8\X64\DEBUG\STATUS.OBJ
D:\GC2A08\C++KADAI\CPP_KADAI\X64\DEBUG\課題8.ILK
D:\GC2A08\C++KADAI\CPP_KADAI\X64\DEBUG\課題8.EXE
D:\GC2A08\C++KADAI\CPP_KADAI\X64\DEBUG\課題8.PDB
